1|Nowy lek, zamiana na inny niemożliwa
2|Nowy lek, zamiana na inny możliwa
3|Powtórzenie leku, zamiana na inny niemożliwa
4|Powtórzenie leku, zamiana na inny możliwa
5|Zamiana na inny niemożliwa
6|Zamiana na inny możliwa