8301|EXPECTORANT
9835|ΣΥΜΠΛΉΡΩΜΑ
9841|STONE DISSOLUTION
9838|WITHDRAWAL SYMPTMS
8408|COUGH SUPPRESANT
8409|COUGH RELIEF
8410|COUGH SEDATIVE
8420|ANTITUSSIVE-EXPECTORANT
8421|ANTITUSSIVE/BRONCHODILAT.
8426|ANTICOUGH+DESCONGEST
8428|ΑΝΤΙΒΗΧΙΚΟ ΑΝΤΙΑΛΛΕΡΓΙΚΌ
8429|ANTITUSSIVE/ANTIHISTAMINIC
8499|ΑΝΤΙΒΗΧΙΚΌ
8501|ΑΝΤΙΣΤΑΜΙΝΙΚΌ
8507|ANTIHISTAMINIC/ DESCONGEST
8509|ANTIHISTAM/ ANTIPRURITUS
8510|ANTIHISTAM/ ANTIINFLAMAT
8511|ANTIHISTAM/ ANTIALLER
8512|ANTIALLERGIC+ANTIPRURIG
8517|ΤΟΠΙΚΌ ΑΝΤΙΣΤΑΜΙΝΙΚΌ
8518|ANTIHISTAMINIC TRANQUILIZER
8599|ΑΝΤΙΣΤΑΜΙΝΙΚΌ ΆΛΛΟ
8602|ΑΝΤΙΓΡΙΠΙΚΌ
8620|ANTIGRIPPE+ANTIVIRAL
8699|ANTIINFLUENZA OTHER
8904|ΚΑΤΆ ΤΗς ΠΝΕΥΜΟΝΊΑς
8905|COMMON COLD TREATMENT
8909|HOARSENESS RELIEF
8911|VOCAL CORDS STIMULANT
8912|MATURATION OF RESP.SYST.
8913|SWALLOWING IMPROVEMENT
8914|SPASTIC AUSCULTN LESSENING
8999|RESPIRATORY ACTION OTHER
9001|ΑΝΤΙΑΛΛΕΡΓΙΚΌ
9002|DESENSITIZATION
9003|ΑΝΑΚΟΎΦΙΣΗ ΣΕ ΑΛΛΕΡΓΙΚΉ ΑΝΤΊΔΡΑΣΗ
9006|ANTI-INFLAMM.& ANTI-ALLERGY
8302|ΒΛΕΝΝΟΛΥΤΙΚΌ
8304|EXPECT
8305|HYDRATION OG PHLEGM
8310|EXPECTOR /BRONCHODILAT
8312|SURFACTANT
8313|THEOPHYLLIC ACTION
8319|ΒΛΕΝΝΟΛΥΤΙΚΌ / ΑΝΤΙΒΗΧΙΚΌ
8320|ΒΛΕΝΝΟΛΥΤΙΚΌ / ΑΠΟΧΡΕΜΠΤΙΚΌ
8324|ΒΛΕΝΝΟΛΥΤΙΚΌ / ΒΡΟΓΧΟΔΙΑΣΤΑΛΤΙΚΌ
8399|EXPECTORANT OTHER
9199|SYMPTOMATIC OTHER
9202|PREGNANCY TEST
9203|URINE TESTING
9204|DIAGNOSTIC TEST
9207|OUTLINER- CONTRAST IMAGES
9299|DIAGNOSTIC OTHER
9301|OPTHAL DECONGESTANT
9302|MYOTIC
9303|MYDRIATIC
9304|CYCLOPLEGIC EFFECT
9305|INTRAOCULA PRESSURE RELIEF
9306|RETARD CATARACT
9307|OPHTAL.ANTIINFECTIVE
9308|ANTIGLAUCOMA
9317|OPHTHALMIC ANTIINFLAMMATORY
9322|COLLYRIUM
9324|OPACITY DECONGESTANT
9325|OPTIC NERVE STIMULATION
9326|INTRAOCULAR PRESSURE INCREASE
9327|INTRAOCULAR PRESSURE REGULTN
9328|CILIARY MUSCLE STIMULANT
9329|RETINA STIMULANT
9333|MYPOPIA CORRECTION
9334|TEAR SUBSTITUTE
9336|CORNEA PROTECTION
9339|LACRIMA CONTROL
9340|CONJUNCTIVITIS TREATMENT
9341|OPHTHALMIC ANTIALLERGIC
9342|ANTI-XEROPHTHALMIC
9343|ΑΝΤΙΑΛΛΕΡΓΙΚΌ ΑΝΤΙΜΙΚΡΟΒΙΑΚΌ
9344|TOPICAL ANTISTAPHYLOCOCCAL
9399|OPHTALMOLOGICAL OTHER
9401|OTIC DECONGESTANT
9402|SOFTEN WAX
9403|DEAFNESS RELIEF
9405|OTIC ANTIINFLAMMATORY
9406|TINNITUS RELIEF
9408|REGULATE SEBUM SECRETION
9410|OTOLITH DISSOLUTION
9413|AURICULAR NERVE IMPROVEMENT
9414|OTIC ANTISEPTIC
9415|BALANCE REGULAT- VERTIGO
9416|ANTI-OTOSCLEROSIS
9499|OTIC OTHER
9601|ΑΝΟΣΟΔΙΑΜΟΡΦΩΤΉς
9602|IMMUNOSUPPRESSIVE
9604|IMMUNOREGULATIVE
9605|SUPPRESS LYMPHOCYTES
9606|IMMUNOSTIMULANT
9607|ΕΝΆΝΤΙΑ ΣΤΗ ΣΑΡΚΟΕΙΔΩΣΗ
9608|ANTI REJECTION
9609|STOP SJOGREN SYMPTOMS
9610|IMMUNOSUPPRES/ ANTIINFLAMM
9611|IMMUNOSUPPRES/ VASOCONSTRI
9612|ANTIVIRAL -IMMUNODUL
9699|OTHER IMMUNOMODULATOR
9801|PLACEBO
9803|PRE-OPERATIVE PREPARATION
9806|SWELLING REDUCTION
9807|ANTI CARCINOMA
9812|DESCONGESTANT
9814|PROTECTIVE
9818|ANTIMITOSIS
9009|ANTIALLERG/ DESCONGEST
9010|ANTIALLERG/ VASOCONSTRICTION
9099|ΑΛΛΕΡΓΙΟΓΌΝΑ
9102|SPECIFIC ACTION
9103|SYMPTOMATIC THERAPY
9110|INTOXICANT SYMPTOMS IMPR.
9113|RELAPSE PREVENTION
9114|PREVENT AGEING
9116|SUPPRESS METABOLISM
9121|SALIVATION CONTROL
9126|COMPLICATION PREVENTION
9127|APHTHAE RELIEF
9136|SUBSTITUTION THERAPY
9142|RELIEVE DRY MOUTH
9822|EMETIC
145|PROKINETIC / ANTIEMET
146|ANTI REFLUX/ ANTIINFLAMM
199|ANTISPASM/ANTICHOLIN OTHER
201|ΑΝΤΙΕΜΕΤΙΚΌ
202|ANTI NAUSEANT
203|ΚΑΤΆ ΤΟΥ ΙΛΊΓΓΟΥ
1|ΑΝΤΙΌΞΙΝΟ
2|CARMINATIVE
3|ΚΑΤΆ ΤΗς ΔΥΣΠΕΨΊΑς
5|GASTRIC FLUID ABSORBENT
6|GASTROPROTECTIVE
7|ANTI GASTRIC ULCER
8|ANTI FLATULENT
9|STOMACH ALKALIZATION
10|HEARTBURN RELIEF
11|ANTI-METEORISM
12|ANTI GASTRITIS
20|ANTACID/ANTIULCERANT
22|H2 RECEPTOR BLOCKER
23|DUODENAL ANTIULCERANT
26|REDUCE GASTRIC REFLUX
27|H2 ANTAGONIST
30|ANTACID/G.I.ANTISPASMODIC
32|ANTACID/ANTIFLATULENT
33|ΑΝΤΙΌΞΙΝΟ ΑΝΤΙΧΟΛΙΝΕΡΓΙΚΌ
35|GASTRIC MUCOSA PROTECTION
38|PERISTALSIS REGULATION
41|GAS PRODUCTION RESTRICTION
42|GASTRIC ACIDITY REGULATION
44|PROTON PUMP INHIBITOR
45|HELICOB.PYLORI EXTIRPATION
46|ULCER PREVENTION
47|ANTI ULCERANT
48|GASTRIC MUCOSA ANTIINFLAMM.
49|CYTOPROTECTION
50|OESOPHAGITIS HEALING
51|ΑΝΤΙΌΞΙΝΟ ΑΝΤΙΦΛΕΓΜΟΝΏΔΕς
52|ANTI FLATULENT/ ANTIDYSPEPSIA
53|REDUCE GASTRIC SECR/ HEALING
54|ΑΝΤΙΌΞΙΝΟ ΑΝΑΛΓΗΤΙΚΌ
55|ΑΝΤΙΌΞΙΝΟ ΑΝΤΙΕΜΕΤΙΚΌ
56|ANTIULCER & ANTIMICROB
57|ANTACID & ANTIREFLUX
99|ANTACID OTHER
101|ΑΝΤΙΧΟΛΙΝΕΡΓΙΚΌ
102|GASTRO-INTEST.ANTISPASMODIC
103|GASTRIC SECRETION DECREASE
104|ANTISPASMODIC
106|ΑΝΑΛΓΗΤΙΚΌ ΣΠΑΣΜΟΛΥΤΙΚΌ
108|ΣΠΑΣΜΟΛΥΤΙΚΌ
109|REGULATE INTESTINE
110|ANTIPERISTALTIC
111|PEPTIC ULCERS HEALING
112|ANTI REFLUX
116|COLIC RELIEF
117|EPIGASTRIC PAIN RELIEF
118|ANTIMUSCARINIC ACTION
123|STOMACH SEDATIVE
125|ANTISPASMODIC/TRANQUILIZER
126|ANTISECRETION (GASTRIC)
128|STOMACH MODIFIER
129|GASTRIC SECRETION REGULATION
130|ANTISPASM/ ANXIOLYT
133|GASTROKINETIC
136|ENTEROKINETIC
137|INTESTINAL ANTIULCERATIVE
138|PROKINETIC
139|ANTISEROTONIN
140|ΕΝΆΝΤΙΑ ΣΤΟ ΕΥΕΡΈΘΙΣΤΟ ΈΝΤΕΡΟ
141|IMPROVE OESOPHAG CONTRACTILIT
142|INCREASE STOMAC&INTES MOTILIT
143|ANTISPASMOD/ ANTIPYRETIC
144|ANTISPASMOD/ ANTIINFLAMM
9823|PROTEOLYSIS
706|INTESTINAL FLORA STABILZTN
711|NORMAL INTESTINAL FLORA
714|ENZYM/DIGESTIVE
719|DIGESTIVE/ANTISPASMODIC
720|INTESTINAL ANTIINFLAMMATORY
721|GASTRIC TONIC
205|ΈΛΕΓΧΟς ΙΛΊΓΓΟΥ
209|NAUSEA RELIEF
210|NAUSEA CONTROL
211|DIZZINESS RELIEF
213|OTIC VESTIBULAR SEDATIVE
214|LABYRINTHINE SEDATIVE
216|ANTIEMETIC/ANTISPASMODIC
218|MORNING NAUSEA RELIEF
219|VERTIGO SUPPRESS
221|LABYRINTH REGULATION
222|ΑΝΤΙΕΜΕΤΙΚΌ / ΚΑΤΆ ΤΟΥ ΙΛΊΓΓΟΥ
299|ANTIEMETIC/ANTINAUSEANT OTHER
301|CHOLERETIC
302|INCR LIVER FUNCTION
303|LIPOTROPIC
304|CHOLAGOGUE
305|HEPATIC PROTECTOR
309|CHOLESTEROL LEVEL REDUCTION
317|HEPATOTONIC
318|INCREASE BILE FLOW
321|CHOLELITH DISSOLUTION
322|LIVER PROTECT
324|JAUNDICE RELIEVER
330|ANTI FATTY LIVER
331|BILE MODIFIER
399|CHOLAGOG.HEPATIC.PROT.OTHER
401|ΚΑΘΑΡΤΙΚΌ
402|FAECAL SOFTENER
404|STOOL BULK FORMING
405|REGUL.INTESTIN FUNC
409|PURGATIVE
411|BOWEL EVACUANT
415|PERIST/GASTR EMP INCREASE
416|DEFECATION PROMOTION
417|DEFECATION REGULATION
420|STOOL BULK F./FECAL SOFT
423|RETAIN FLUID IN BOWEL
424|LAXATIVE & ANTILIPIDEMIC
499|ΚΑΘΑΡΤΙΚΌ ΆΛΛΟ
505|OSMOTIC ACTION
506|STOP DIARRHOEA
507|CONSTIPATING
508|DIARRHEA CONTROL
509|GASTRO INTESTINAL SEDATIVE
511|ADSORPTION
514|INTESTINAL ANTISEPTIC
515|ANTIDIARR.+ ANTI-INFLAMM.
518|DIARRHEA RELIEF
522|ΑΝΤΙΔΙΑΡΡΟΪΚΌ / ΑΝΤΙΣΠΑΣΜΩΔΙΚΌ
523|DEHYDRATION PREVENTION
533|ΑΝΤΙΔΙΑΡΡΟΪΚΌ / ΑΝΤΙΜΙΚΡΟΒΙΑΚΌ
538|REGULAT INTESTINAL MOTILIT
540|INTESTINAL ANTI-INFLAMM.
541|LOCAL INTEST CHEMOTHERA
599|ΑΝΤΙΔΙΑΡΡΟΪΚΌ
601|ΚΑΤΆ ΤΗς ΠΑΧΥΣΑΡΚΊΑς
602|APPETITE SUPPRESSION
604|BANTINGISM
605|WEIGHT REDUCTION
608|APPETITE REDUCTION
610|REDUCTION OF FAT
615|REDUCE FAT ABSORPTION
616|LIPASE INHIBITOR
699|ΚΑΤΆ ΤΗς ΠΑΧΥΣΑΡΚΊΑς ΆΛΛΟ
701|DIGESTANT
702|ENZYMATIC ACTION
704|EUPEPTIC
725|FAST STOMACH MOTION
726|INTESTINES REGULATION
730|ENHANCE FLORA (INT)
731|STOMACH MOTION REGULATION
732|PANCREATIC FUNCTION SUBSTITN
733|PROTECT INTESTINAL MUCOSA
734|GLUTEN FREE DIET
735|IMPROVE GASTRIC FUNCTION
737|PANCREATIC ENZYME
738|PROMOTE SALIVATION
739|DECREASE INTEST SECRETION
799|DIGESTANT OTHER
801|ΑΝΤΙΔΙΑΒΗΤΙΚΌ
802|HYPOGLYCAEMIC
803|DIABETES CONTROL
805|DIABETES REGULATION
806|BLOOD SUGAR CONTROL
808|INSULINOTHERAPY
810|SACCHARUM METAB.REGULTN
811|GLYCOSURIA REDUCTION
835|REDUCED CARBOHY.ABSORPN
837|STIMULATE INSULIN RELEASE
838|DECREASE INSULIN RESISTANCE
839|GLUCOSE BINDING
899|ΑΝΤΙΔΙΑΒΗΤΙΚΌ ΆΛΛΟ
901|VITAMINS NUTRNT SUP
902|TONIC
903|APPETITE STIMULANT
904|METABOLIC STIMULANT
906|INCREASE CALCIUM LEVEL
907|MINERAL SUPPLEMENT
909|REVITALIZING
911|ΑΝΑΒΟΛΙΚΌ
914|ΑΝΑΛΗΠΤΙΚΌ
915|ANTIRACHITIC
916|REGULATE METABOLISM
917|NEUROTONIC
918|ANTINEURITIC
928|ΒΙΤΑΜΊΝΗ E ΣΥΜΠΛΉΡΩΜΑ
929|PRENATAL VIT.SUPPLEMENT
930|SUBSTITUTE FOOD
931|NUTRIENT SUPPLEMENT
932|INFANT FORMULA
933|FLUORIDE ACTION
935|WEIGHT GAIN
940|ΒΙΤΑΜΊΝΗ
941|POLYVITAMIN SUPPLEMENT
942|APPETIZER
943|APPETITE IMPROVEMENT
944|DIETARY SUPPLEMENT
945|POTASSIUM REPLACEMENT
946|NEUROTROPIC VITAMIN
951|CALCIO-VITAMIN
952|ENERGY INCREASE
953|ΒΙΤΑΜΙΝΗ Β6 ΣΥΜΠΛΉΡΩΜΑ
955|ANTI-ANOREXIC+VITAMIN
959|HYDRATION
960|REHYDRATION
965|GIVE FLUIDS
967|CALCIUM SUPPLEMENT
968|BRAIN ENERGIZER
970|NEUROTROPHIC
972|ΒΙΤΑΜΊΝΗ B ΣΥΜΠΛΉΡΩΜΑ
973|ΒΙΤΑΜΊΝΗ C ΣΥΜΠΛΉΡΩΜΑ
974|RESTORE NERVE VITALITY
975|FATIGUE FEELING RELIEF
978|FERRUM DEIONIZATION
983|GROWTH IMPROVEMENT
984|VITAMINIC+HEMATOPOIETIC
986|VITAMINS+MINERALS
990|CALCIOTHERAPY
991|MAGNESIUM SUPPLEMENT
993|CALCITONIN
995|NERVE TISSUE REINFORCEMENT
996|CALCIUM MODULATION
997|VIT. D SUPPLEMENT
999|VITA-TONICS-MINER.SUP OTHER
1002|CLOT DISSOLUTION
1006|ANTITHROMBOTIC
1007|HEPARINIZE
1008|PLATELET ADHESION DECREASE
1009|ANTIPLATELET AGENT
1010|THROMBUS PREVENTION
1099|ΑΝΤΙΠΗΚΤΙΚΌ
1101|ANTIHAEMORRHAGE
1103|HEMOSTATIC
1104|BLOOD COAGULATE
1106|BLEEDING CONTROL
1109|BLOOD STYPTIC
1111|PROTHOMBRIN TIME INCREASE
1113|TOPICAL HEPARINATE
1114|HEMOSTATIC/ANALGESIC
1199|ANTIHAEMORRHAGE OTHER
1202|HAEMOPOETIC
1203|HAEMATINIC
1204|IRON SUPPLEMENT
1206|IRON THERAPY
1207|IRON REPLACEMENT
1208|HAEMOGLOBIN LEVEL INCREASE
1209|ΠΡΌΛΗΨΗ ΑΝΑΙΜΊΑς
1210|ΔΙΌΡΘΩΣΗ ΑΝΑΙΜΊΑς
1211|IRON & FOLIC ACID SUPPL.
1212|B12 SUPPLEMENT
1214|ΑΝΤΙΑΝΑΙΜΙΚΌ/ΣΥΜΠΛΉΡΩΜΑ ΣΙΔΉΡΟΥ
1220|ANTIANAEMIC/VITAM.SUPPL.
1222|HEMATOCRIT IMPROVEMENT
1223|ΜΕΊΩΣΗ ΣΥΜΠΤΩΜΆΤΩΝ ΑΝΑΙΜΊΑς
1224|HEMATOCRIT INCREASE
1227|ΜΕΊΩΣΗ ΑΝΑΙΜΊΑς
1230|REDCELL METABOLISM IMPROVMENT
1231|IRON SUPPLEM FOR PREGNANCY
1232|FOLIC ACID + CALCIUM SUPPLEM
1233|ANTI MEGALOBLAST ANEMIA
1299|ΑΝΤΙΑΝΑΙΜΙΚΌ
1301|CHOLESTEROL REDUCTION
1302|TRIGLYCERIDES REDUCTION
1303|ΑΝΤΙΜΕΤΏΠΙΣΗ ΤΗς ΑΡΤΗΡΙΟΣΚΛΉΡΩΣΗς
1304|BLOOD LIPIDS REDUCTION
1309|HYPOLIPIDEMIC
1313|LIPOLYTIC
1319|HMG COA REDUCTASE INHIBITOR
1321|INCREASE HDL
1399|CHOLESTEROL REDUCER OTHER
1502|HEMATOMA ABSORBPTION
1505|PLATELET STICKINESS REDUCTION
1506|FIBRINOLYSIS
1509|HEMATOMA REDUCTION
1599|FIBRINOLYTIC OTHER
1600|ΑΓΓΕΙΟΒΕΛΤΙΩΤΙΚΉ ΔΡΆΣΗ
1602|ΑΓΓΕΙΟΔΙΑΣΤΑΛΤΙΚΉ ΔΡΆΣΗ 
1603|ΑΓΓΕΙΟΔΙΑΣΤΑΛΤΙΚΌ
1604|ΑΓΓΕΙΟΡΥΘΜΙΣΤΙΚΉ ΑΓΩΓΉ 
1605|ΑΓΧΟΛΥΤΙΚΉ ΔΡΆΣΗ
1606|ΑΓΩΓΉ ΚΑΤΑΣΤΟΛΉς
1607|ΑΙΜΟΠΗΚΤΙΚΉ ΔΡΆΣΗ
1608|ΑΙΜΟΠΟΙΗΤΙΚΉ ΔΡΆΣΗ
1609|ΑΝΑΛΓΗΤΙΚΉ ΔΡΆΣΗ
1610|ΑΝΑΣΤΟΛΉ ΜΕ ΘΥΡΟΞΊΝΗ
1611|ΑΝΑΣΤΟΛΉ ΤΡΙΧΌΠΤΩΣΗς, ΕΝΊΣΧΥΣΗ ΤΡΙΧΟΦΥΊΑς      
1612|ΑΝΟΡΕΞΙΟΓΌΝΟς 
1613|ΑΝΟΣΟΚΑΤΑΣΤΑΛΤΙΚΉ ΔΡΆΣΗ
1614|ΑΝΟΣΟΠΟΊΗΣΗ 
1615|ΑΝΟΣΟΠΟΊΗΣΗ ΈΝΑΝΤΙ ΙΟΎ ΑΝΕΜΕΥΛΟΓΙΆς
1616|ΑΝΟΣΟΠΟΊΗΣΗ ΈΝΑΝΤΙ ΜΗΝΙΓΓΙΤΙΔΌΚΟΚΚΟΥ 
1617|ΑΝΟΣΟΠΟΙΗΤΙΚΟς ΕΜΒΟΛΙΑΣΜΟς
1618|ΑΝΟΣΟΡΡΥΘΜΙΣΤΙΚΉ ΔΡΆΣΗ
1619|ΑΝΟΣΟΡΥΘΜΙΣΤΙΚΉ ΔΡΆΣΗ
1629|ΑΝΤΙΑΝΟΙΚΉ ΔΡΆΣΗ
1630|ΑΝΤΙΑΝΟΪΚΗ ΔΡΆΣΗ
1631|ΑΝΤΙΑΝΟΪΚΉ ΔΡΆΣΗ
1632|ΑΝΤΙΑΡΡΥΘΜΙΚΉ ΔΡΆΣΗ
1633|ΑΝΤΙΒΙΟΤΙΚΉ ΔΡΆΣΗ
1634|ΑΝΤΙΓΛΑΥΚΩΜΑΤΙΚΉ ΔΡΆΣΗ
1635|ΑΝΤΙΓΡΙΠΙΚΟς ΕΜΒΟΛΙΑΣΜΟς
1636|ΑΝΤΙΔΙΑΒΗΤΙΚΉ ΔΡΆΣΗ
1637|ΑΝΤΙΔΙΑΡΡΟΙΚΉ ΔΡΆΣΗ 
1638|ΑΝΤΙΕΚΚΡΙΤΙΚΉ ΔΡΆΣΗ
1639|ΑΝΤΙΕΛΚΩΤΙΚΉ ΔΡΆΣΗ
1640|ΑΝΤΙΕΜΕΤΙΚΉ ΔΡΆΣΗ 
1641|ΑΝΤΙΕΠΙΛΗΠΤΙΚΉ ΔΡΆΣΗ
1643|ΑΝΤΙΕΡΠΗΤΙΚΗ ΔΡΆΣΗ
1644|ΑΝΤΙΕΡΠΗΤΙΚΉ ΔΡΆΣΗ 
1645|ΑΝΤΙΘΡΟΜΒΩΤΙΚΉ ΔΡΆΣΗ
1646|ΑΝΤΙΘΥΡΕΟΕΙΔΙΚΉ
1647|ΑΝΤΙΘΥΡΕΟΕΙΔΙΚΉ ΔΡΆΣΗ
1648|ΑΝΤΙΙΛΙΓΓΙΚΉ ΔΡΆΣΗ
1649|ΑΝΤΙΙΣΤΑΜΙΝΙΚΉ ΔΡΆΣΗ
1650|ΑΝΤΙΚΑΤΑΓΜΑΤΙΚΉ ΔΡΆΣΗ
1651|ΑΝΤΙΚΑΤΑΘΛΙΠΤΙΚΉ ΔΡΆΣΗ
1652|ΑΝΤΙΚΝΗΜΏΔΗς ΔΡΆΣΗ
1653|ΑΝΤΙΚΝΗΣΜΏΔΗς ΔΡΆΣΗ
1654|ΑΝΤΙΛΙΠΙΔΑΙΜΙΚΉ 
1655|ΑΝΤΙΛΙΠΙΔΑΙΜΙΚΉ ΔΡΆΣΗ
1656|ΑΝΤΙΛΙΠΙΔΑΙΜΙΚΉ ΜΙΚΤΉς ΥΠΕΡΛΙΠΙΔΑΙΜΊΑς 
1657|ΑΝΤΙΜΑΝΙΑΚΉ ΔΡΆΣΗ
1658|ΑΝΤΙΜΑΝΙΚΉ ΔΡΆΣΗ
1659|ΑΝΤΙΜΙΚΡΟΒΙΑΚΉ ΔΡΆΣΗ
1660|ΑΝΤΙΜΥΚΗΤΙΑΚΉ ΔΡΆΣΗ
1661|ΑΝΤΙΜΥΚΗΤΙΑΣΙΚΗ ΔΡΆΣΗ
1662|ΑΝΤΙΜΥΚΗΤΙΑΣΙΚΉ ΔΡΆΣΗ
1663|ΑΝΤΙΝΕΥΡΑΛΓΙΚΉ ΔΡΆΣΗ 
1664|ΑΝΤΙΌΞΙΝΗ
1665|ΑΝΤΙΌΞΙΝΗ ΔΡΆΣΗ
1666|ΑΝΤΙΟΣΤΕΟΚΛΑΣΤΙΚΉ
1667|ΑΝΤΙΟΣΤΕΟΚΛΑΣΤΙΚΉ  ΔΡΆΣΗ
1668|ΑΝΤΙΟΣΤΕΟΚΛΑΣΤΙΚΉ ΔΡΆΣΗ
1669|ΑΝΤΙΟΣΤΕΟΠΟΡΩΤΙΚΉ ΔΡΆΣΗ
1670|ΑΝΤΙΠΑΝΙΚΉ ΔΡΆΣΗ
1671|ΑΝΤΙΠΑΡΚΙΝΣΟΝΙΚΉ ΔΡΆΣΗ
1672|ΑΝΤΙΠΑΡΟΡΜΗΤΙΚΉ ΔΡΆΣΗ
1673|ΑΝΤΙΠΗΚΤΙΚΉ ΔΡΆΣΗ
1674|ΑΝΤΙΠΥΡΕΤΙΚΉ ΔΡΆΣΗ 
1675|ΑΝΤΙΡΕΥΜΑΤΙΚΉ ΔΡΆΣΗ 
1676|ΑΝΤΙΣΗΠΤΙΚΉ ΔΡΆΣΗ
9829|ANTI-TOXIC ACTION
1620|ΑΝΟΣΟΤΡΟΠΟΠΟΙΗΤΙΚΉ ΔΡΆΣΗ
1621|ΑΝΟΣΟΤΡΟΠΟΠΟΙΗΤΙΚΉς ΔΡΆΣΗ
1622|ΑΝΤΑΓΩΝΙΣΤΙΚΉ ΟΠΙΟΕΙΔΏΝ
1623|ΑΝΤΙΑΓΧΟΛΥΤΙΚΌ
1624|ΑΝΤΙΑΓΧΏΔΗς ΔΡΆΣΗ
1625|ΑΝΤΙΑΙΜΟΠΕΤΑΛΙΑΚΗ ΔΡΆΣΗ 
1626|ΑΝΤΙΑΛΛΕΡΓΙΚΉ ΔΡΆΣΗ 
1627|ΑΝΤΙΑΝΑΙΜΙΚΉ ΔΡΆΣΗ
1628|ΑΝΤΙΑΝΔΡΟΓΌΝΟς ΔΡΆΣΗ
1708|ΗΡΕΜΙΣΤΙΚΉ ΔΡΆΣΗ
1709|ΗΡΕΜΙΣΤΙΚΌ
1710|ΘΕΡΑΠΕΊΑ ΕΚΡΊΖΩΣΗς HP ΣΤΟΜΆΧΟΥ
1711|ΘΥΜΟΣΤΑΘΕΡΟΠΟΙΗΤΙΚΉ ΔΡΆΣΗ
1712|ΙΝΌΤΡΟΠΗ - ΧΡΟΝΟΤΡΌΠΟς ΔΡΆΣΗ
1713|ΚΑΡΔΙΟΤΟΝΩΤΙΚΉ ΔΡΆΣΗ
1714|ΚΑΤΑΣΤΑΛΤΙΚΉ ΔΡΆΣΗ
1715|ΚΥΤΤΑΡΟΣΤΑΤΙΚΉ ΔΡΆΣΗ
1716|ΜΕΊΩΣΗ ΌΓΚΟΥ ΠΡΟΣΤΆΤΟΥ
1717|ΜΕΊΩΣΗ ΠΊΕΣΗς ΠΥΛΑΊΑς ΦΛΈΒΑς
1718|ΜΥΟΧΑΛΑΡΩΤΙΚΉ ΔΡΆΣΗ 
1719|ΜΥΟΧΑΛΑΡΩΤΙΚΉ ΔΡΆΣΗ ΣΤΟΝ ΠΡΩΚΤΌ
1720|ΟΣΤΕΟΣΥΝΘΕΤΙΚΉ ΔΡΆΣΗ
1721|ΠΑΡΑΣΙΤΟΚΤΌΝΟς ΔΡΆΣΗ
1722|ΠΡΟΚΙΝΗΤΙΚΉ ΔΡΆΣΗ 
1723|ΠΡΟΣΤΑΤΕΥΤΙΚΌ ΣΤΟΜΆΧΟΥ 
1724|ΣΠΑΣΜΟΛΥΤΙΚΉ ΔΡΆΣΗ
1725|ΣΤΑΘΕΡΟΠΟΙΗΤΙΚΉ ΔΡΆΣΗ
1726|ΣΥΜΠΛΉΡΩΜΑ VIT D
1727|ΣΥΜΠΛΉΡΩΜΑ ΑΣΒΕΣΤΊΟΥ + VIT D
1728|ΤΟΠΙΚΉ ΧΗΜΕΙΟΘΕΡΑΠΕΥΤΙΚΉ ΔΡΆΣΗ
1729|ΤΡΟΠΟΠΟΙΗΤΙΚΉ ΔΡΆΣΗ
1730|ΤΡΟΠΟΠΟΙΗΤΙΚΉ ΤΗς ΝΌΣΟΥ
1677|ΑΝΤΙΣΠΑΣΜΩΔΙΚΉ ΔΡΆΣΗ ΣΤΟ ΈΝΤΕΡΟ
1678|ΑΝΤΙΣΤΗΘΑΓΧΙΚΉ ΔΡΆΣΗ 
1679|ΑΝΤΙΥΠΕΡΟΥΡΙΧΑΙΜΙΚΉ ΔΡΆΣΗ
1680|ΑΝΤΙΥΠΕΡΤΑΣΙΚΉ ΔΡΆΣΗ 
1681|ΑΝΤΙΦΛΕΓΜΟΝΏΔΗς ΔΡΆΣΗ
1682|ΑΝΤΙΦΟΒΙΚΉ ΔΡΆΣΗ
1683|ΑΝΤΙΧΟΛΙΝΕΡΓΙΚΉ ΔΡΆΣΗ
1684|ΑΝΤΙΨΥΧΑΝΑΓΚΑΣΤΙΚΉ ΔΡΆΣΗ
1685|ΑΝΤΙΨΥΧΩΣΙΚΉ ΔΡΆΣΗ
1686|ΑΝΤΙΨΥΧΩΤΙΚΉ ΔΡΆΣΗ
1687|ΑΠΟΙΔΗΜΑΤΙΚΉ ΔΡΆΣΗ
1688|ΑΠΟΚΑΤΆΣΤΑΣΗ ΑΝΕΠΆΡΚΕΙΑς VIT D
1689|ΑΠΟΚΑΤΆΣΤΑΣΗ ΣΙΔΗΡΟΠΕΝΊΑς
1690|ΑΠΟΛΥΜΑΝΤΙΚΉ ΔΡΆΣΗ 
1691|ΑΠΟΣΥΜΦΌΡΗΣΗ ΜΎΤΗς
1692|ΑΠΟΣΥΜΦΟΡΗΤΙΚΗ ΔΡΆΣΗ
1693|ΒΕΛΤΙΩΤΙΚΌ ΟΎΡΗΣΗς
1694|ΒΛΕΝΝΟΛΥΤΙΚΉ ΔΡΆΣΗ 
1695|ΒΡΟΓΧΟΔΙΑΣΤΑΛΤΙΚΉ ΔΡΆΣΗ
1696|ΒΡΟΓΧΟΔΙΑΣΤΑΛΤΙΚΌ
1697|ΓΑΣΤΡΟΠΡΟΣΤΑΣΙΑ 
1698|ΓΑΣΤΡΟΠΡΟΣΤΑΤΕΥΤΙΚΉ ΔΡΆΣΗ
1699|ΔΙΑΙΤΗΤΙΚΉ ΔΡΆΣΗ
1700|ΔΙΟΥΡΗΤΙΚΉ ΔΡΆΣΗ 
1701|ΕΚΡΊΖΩΣΗ HP 
1702|ΕΛΛΕΙΨΗ VIT. D 
1703|ΕΜΒΌΛΙΟ ΈΝΑΝΤΙ ΙΛΑΡΆς - ΠΑΡΩΤΊΤΙΔΑς - ΕΡΥΘΡΆς 
1704|ΕΜΒΌΛΙΟ ΈΝΑΝΤΙ ΜΗΝΙΓΓΙΤΙΔΌΚΟΚΚΟΥ
1705|ΕΜΒΌΛΙΟ ΈΝΑΝΤΙ ΠΝΕΥΜΟΝΙΌΚΟΚΚΟΥ
1706|ΕΠΟΥΛΩΤΙΚΉ ΔΡΆΣΗ
1707|ΗΠΙΑ ΒΡΟΓΧΟΔΙΑΣΤΑΛΤΙΚΉ ΔΡΆΣΗ
2113|CARDIAC GLYCOSIDE
2114|SUPPORTS MYOCARDIUM
2128|REDUCE CARDIAC AFTERLOAD
2129|CARDIAC POSIT.INOTROP.ACT.
2132|ANTI HEART FAILURE
2150|IMPROVE CARDIAC OUTPUT
2152|CARDIOTONIC & DIURETIC
2199|OTHER MYOCARDIAC STIMLNT
2202|ANTIHYPERTENSIVE
2205|ΥΠΟΤΑΣΙΚΌ / ΔΙΟΥΡΗΤΙΚΌ
2207|BLOOD PRESSURE REDUCTION
2208|BLOOD PRESSURE CONTROL
2209|GANGLIOPLEGIC
2211|ALPHA BLOCKER
2214|ANGIOTENSIN II ANTAGONIST
2215|HYPOTENSIVE/BETA BLOCKER
1731|ΥΠΑΚΤΙΚΉ ΔΡΆΣΗ
1732|ΥΠΑΣΒΕΣΤΙΑΙΜΙΚΉ ΔΡΆΣΗ
1733|ΥΠΝΑΓΩΓΙΚΉ ΔΡΆΣΗ 
1734|ΥΠΝΑΓΩΓΌς
1735|ΥΠΝΩΤΙΚΉ ΔΡΆΣΗ
1736|ΥΠΟΓΛΥΚΑΙΜΙΚΉ ΔΡΆΣΗ
1737|ΥΠΟΚΑΤΆΣΤΑΣΗ ΑΓΩΓΉς ΜΕ ΘΥΡΟΞΊΝΗ
1738|ΥΠΟΚΑΤΆΣΤΑΣΗ ΘΥΡΟΞΊΝΗς
1739|ΥΠΟΚΑΤΆΣΤΑΣΗ ΙΝΣΟΥΛΊΝΗς
1740|ΥΠΟΚΑΤΆΣΤΑΣΗ ΠΡΟΛΑΚΤΊΝΗς
1741|ΥΠΟΚΑΤΆΣΤΑΣΗ ΣΙΔΉΡΟΥ
1742|ΥΠΟΛΙΠΙΔΑΙΜΙΚΉ ΔΡΆΣΗ
1743|ΥΠΟΟΥΡΙΧΑΙΜΙΚΉ ΔΡΆΣΗ 
1744|ΥΠΟΤΑΣΙΚΉ ΔΡΆΣΗ
1745|ΦΛΕΒΟΤΟΝΙΚΉ ΔΡΆΣΗ
1746|ΧΆΛΑΣΗ ΛΕΊΩΝ ΜΥΙΚΏΝ ΙΝΏΝ
1747|ΧΟΛΕΚΚΡΙΤΙΚΉ ΔΡΆΣΗ
1748|ΧΟΝΔΡΟΑΝΑΠΛΑΣΤΙΚΉ ΔΡΆΣΗ 
1901|LEUKOCYTES STIMULANT
1904|ANTIFIBRINOLYSIS
1907|BLOOD SUBSTITUTE
1908|LEUKOCYTOSIS INCREASE
1909|LEUKOCYTOSIS DECREASE
1910|ERYTHROCYTOSIS INCREASE
1911|PLATELET FUNCTION CONTROL
1913|PLATELET FUNCTION IMPROVEMENT
1914|PLATELETS INCREASE
1916|LEUKOPENIA PREVENTION
1919|ANTI-MYELOPOIETIC FUNCT
1924|ANTI ENZYME
1927|IRON EXCRETION INCREASE
1928|ECCHYMOSIS ABSORPTION
1929|INFUSION
1930|LEUCOCYTE GROWTH FACTOR
1931|ANTI-LEUKEMIC
1932|BONE MARROW STIMULANT
1999|BLOOD ACTION OTHER
2002|HEART RATE CONTROL
2003|BETA BLOCKER
2004|BRADYCARDIAC
2008|DIGITALIS EFFECT
2011|HEART RATE RESTORATION
2017|BETA BLOCKER DIURETIC
2021|TACHYCARDIA DECREASE
2022|CARDIAC NEGTV.INOTROP.ACTION
2023|ΚΑΤΆ ΤΗς ΑΡΡΥΘΜΊΑς/ΥΠΈΡΤΑΣΗς
2024|ΚΑΤΆ ΤΗς ΑΡΡΥΘΜΊΑς/ΚΑΡΔΙΟΤΟΝΙΚΌ
2025|ANTITACHYCARD/ ANTIHYPERTENS
2099|ΚΑΤΆ ΤΗς ΑΡΡΥΘΜΊΑς
2101|MYOCARDIAC STIMULANT
2103|CARDIOTONIC
2110|CARDIAC TONIC
2112|CARDIAC INSUFFIC.IMPROVEM.
2920|CEREBRAL CIRCLTN IMPROVEMENT
2922|VASOKINETIC
2923|VASOREGULATOR
2930|VENOTROPHIC
2932|OXYGENATION OF CELLS
2933|EXTREMITIES CIRCLTN IMPR.
2937|CEREBRAL OXYGENATION
2939|ANTIISCHEMIC
2942|HEMIPLEGIA IMPROVEMENT
2945|VASCULAR REGULATION
2946|VASCULAR PROTECTOR
2947|VENAL INFLMTN REDUCTION
2948|VENAL CIRCLTN IMPROVEMENT
2949|ISCHAEMIA RELIEF
9839|DRAINAGE
2216|ACE INHIBITOR
2217|ACE-INHIBITOR / DIURETIC
2220|ANTIHYPERTENS/ ANTIISCHEMIC
2221|ANTIHYPERT ANTIHYPERTROPH HEART
2222|ANTIHYPERTENS/ VASODILAT
2223|ANTIHYPERTENS/ CARDIOTONIC
2299|ΥΠΟΤΑΣΙΚΌ
2301|ΔΙΟΥΡΗΤΙΚΌ
2302|OEDEMA CONTROL
2304|REDUCE LIQUID RETENTION
2306|ΔΙΟΎΡΗΣΗ
2307|OEDEMA RELIEF
2309|ANTI ALDOSTERONE
2310|DIURETIC/ANTIHYPERTENSIVE
2311|OEDEMA REDUCTION
2312|DIURETIC/HYPOTENSIVE
2322|ΕΝΆΝΤΙΑ ΟΙΔΉΜΑΤΟς
2323|PREVENT POTASSIUM LOSS
2399|ΔΙΟΥΡΗΤΙΚΌ ΆΛΛΟ
2401|PERIPHERAL VASODILATOR
2402|PERIPHERAL CIRCUL.INCREASE
2403|VASO-CAPILARY CIRCUL.INCREASE
2404|CEREBRAL METABOL.ACTIVATION
2408|VASODIL/ RED. ARTER PRESSUR
2409|PERIPH-VASODILATOR/ DIURET
2499|PERIPHERAL VASODILATOR OTHER
2501|ANTIHAEMORRHOIDAL
2502|HEMORRHOIDS CONSTRICTION
2503|HAEMORRHOIDS REDUCTION
2599|ANTIHEMORRHOIDS OTHER
2601|CORONARY VASODILATOR
2602|ANGINAL PAIN RELIEF
2603|CORONARY DILATOR
2604|CORONARY CIRCLTN INCREASE
2609|ΚΑΤΆ ΤΗς ΣΤΗΘΆΓΧΗς
2610|CALCIUM ANTAGONIST
2618|CARDIAC.HEMAT.CIRCLTN IMPR.
2619|NITRITES
2620|ANTIHYPERT/ ANTIANGINA
2621|REDUCE PULMON CAPILLA. PRESS
2622|PREVENT CORONAR ARTERIE SPASM
2623|REGULATE CORONARY VESSELS
2624|VASODILATOR & ANTIISCHEMIC
2699|VASODILATOR CORONARY OTHER
2701|ΥΠΕΡΤΑΣΙΚΌ
2702|BLOOD PRESSURE INCREASE
2704|ANTI HYPOTENSION
2707|REGUL PORTAL HYPERTENSION
2799|ΥΠΕΡΤΑΣΙΚΌ ΆΛΛΟ
2901|ANTISCLEROTIC
2902|CIRCULATION INCREASE
2905|CEREBRAL VASODILATOR
2906|VASOCONSTRICTOR
2907|VASODILATOR
2910|VASOPROTECTIVE
2911|PHLEBOSTASIS
2912|ANTI SHOCK
2913|VASOCONSTRICTOR TOPICAL
2914|VENAL TONIC
2918|ANTI ANGINA
2919|ΜΕΊΩΣΗ ΠΌΝΟΥ ΣΤΗΘΆΓΧΗς
3407|KERATOLYTIC/SEBORRHEA CONTR
3408|KERATOREGULATION
3409|ANTIANDROGEN & IMPROVE ACNE
3410|ANTIACNE & ANTIMICROBIAL
3499|ΑΝΤΙ-ΑΚΜΉ ΆΛΛΟ
3502|ECZEMA RELIEF
3503|ECZEMA CONTROL
3504|ECZEMA SUPPRESSION
3506|ECZEMA REDUCTION
3508|ANTIINFLAMM + VASOCONSTRI
3509|ANTIINFLAMM + HYDRATION
3599|ΈΚΖΕΜΑ ΑΝΤΙΜΕΤΏΠΙΣΗ
3901|ANTISEBORRHOEIC
3902|CAUTERY
2950|MICRO-CIRCULTN INCREASE
2952|REGULAT.CIRCULAT.
2953|CIRCULATION IMPROVEMENT
2955|CEREBRAL CIRCLTN INCREASE
2956|PARALYSIS REDUCTION
2961|VENOUS CATHETERIZATION
2962|IMPROVE RENAL BLOOD FLOW
2964|CEREBRAL AILMENT IMPROVEMENT
2966|CARDIAC PROTECTION
2970|VENAL PROTECTION
2977|VENODILATION
2978|VASC. WALL STABILISATION
2979|EFFECT ON CALCIUM PUMP
2980|IMPROVE VENOUS INSUFF
2999|CARDIOVASCLR ACTION-OTHER
3001|ΤΟΠΙΚΌ ΑΝΤΙΜΥΚΗΤΙΑΚΌ
3002|FUNGICIDE
3003|ANTIMYCOTIC
3006|ANTIMYCOTIC & ANTIBIOTIC
3009|ANTIMYCOT/ ANTIINFLAMM
3011|ANTIFUNGAL & ANTI-ALLERGY
3018|ΕΝΆΝΤΙΑ ΣΤΟ ΜΎΚΗΤΑ
3019|MYCOSTATIC
3020|MYCOSTATIC & ANTI-INFLAMM.
3021|REMOVE FAVOURABLE CONDITNS
3022|ANTIMYCOT/ ANTIPRURIT
3023|ANTIMYCOT/ DRYING
3099|ANTIFUNGAL ACTION-OTHER
3101|EMOLLIENT
3103|LUBRICANT
3105|REPELLENT
3107|MOISTURIZING
3108|SUN PROTECTIVE
3110|PROTECT MUCOSA
3114|ANTI AMMONIA
3116|EMOLLIENT / HYDRATION
3117|ANTI-LICHEN
3118|EMOLLIENT / ANTISEPTIC
3119|EMOLLIENT / ANTIALLERG
3199|EMOLL.& PROTECTIVE OTHER
3201|ΕΠΟΥΛΩΤΙΚΌ
3203|EPITHELIAL ACTION
3204|DERMOTROPHIC
3207|CICATRIZATION
3213|PREVENT SCAR, ANTI-KELOID
3214|REGENERATE EPITHELIUM
3216|CICATRIZANT+ANTIBIOTIC
3217|DISSOLUTION OF STRUCTURE
3299|ΕΠΟΥΛΩΤΙΚΌ ΆΛΛΟ
3302|PRURITUS SEDATIVE
3303|IRRITATION
3305|ITCHING RELIEF
3307|ANTIPRUR+ANTI-ALLERGIC
3308|ANTIPRUR+ANTI-INFLAMATORY
3310|ANTIERYTHEMATOUS/ ANTIPRURIT
3311|ANTIPRURIT/ ANTIMICROBIAL
3312|ANTIPRURITIC DESQUAMATING
3399|ΑΝΤΙΚΝΗΣΜΏΔΗς
3401|ΑΝΤΙ-ΑΚΜΉ
3402|KERATOLYTIC
3903|CLEANSING
3904|PROMOTE HEALING
3906|SKIN SEDATIVE
3909|ANTIVARICOS.
3910|TREAT VARICOSE ULCER
3914|ΑΝΤΙΣΗΠΤΙΚΌ ΔΈΡΜΑΤΟς
3915|COSMETIC
3916|ΑΝΑΚΟΎΦΙΣΗ
3917|STIMULATE MELANIN
3918|DEPIGMENTATION
3919|SUPPRESS GREASINESS
3922|PH ADJUSTMENT
3924|ASTRINGENT
3925|DRYING
3926|BURN RELIEF
3927|ANTISUDORAL
3929|TOPICAL
3931|ΚΑΘΑΡΙΣΤΙΚΌ ΔΈΡΜΑΤΟς
3932|ΣΑΜΠΟΥΆΝ
3933|WART REMOVAL
3934|DESQUAMATING AGENT
3935|DRESSING
3937|ΑΝΤΙΨΩΡΙΑΣΙΚΌ
3938|TOPICAL STEROID
3940|ΑΝΤΙΈΡΠΗς
3942|ANTI ALOPECIA
3944|TOPICAL ANTI INFLAMMATORY
3945|ΤΟΠΙΚΌ ΜΙΚΡΟΒΙΟΚΤΌΝΟ
3947|HYDRATANT
3948|SKIN INFLAMTN SUPPRESSION
3950|ΤΟΠΙΚΌ ΑΝΤΙΒΙΟΤΙΚΌ
3952|WART TREATMENT
3955|MOISTENING
3958|ANTI DYSCHROMIA
3959|DECUBITUS TREATMENT
3960|SEBUM SECRETION REGULTN
3965|SKIN LESION REDUCTION
3966|DERMAL ANTI-LYMPHOCYT.ACT.
3967|TOPIC.ANTIFUNG./ANTIINFLAM.
3968|TOPICAL OEDEMA IMPROVEMENT
3969|ΑΝΤΙΠΙΤΥΡΙΔΙΚΟ
3970|ANTI-ERYTHEMA
3971|COLAGEN SYNTHESIS INHIBITION
3972|INCREASE BLOOD FLOW TO SCALP
3973|KERATIN IMPROVEMENT
3974|TREATM OF PIGMENT DISORD
3975|DESQUAMATING /HYDRATION
3976|REGENERATION EPIDERMIS
3977|CORTICOSTER/ ANTIBIOT CREAM
3978|ANTI ERYTHEMA/ ANTIINFLAM
3999|DERMATOLOGIC ACTIONS OTHER
4001|MENOPAUSE SYMPTOMS REDUCTION
4002|MENSTRUATION REGULTN
4003|LACTATION SUPPRESSION
4004|ABORTION PREVENTION
4005|UTERINE SEDATIVE
4006|UTERINE STIMULANT
4008|DYSMENORRHEA RELIEF
4010|PREGNANCY MAINTENANCE
4011|VAGINITIS CONTROL
4013|CLEAR VAGINAL DISCHARGE
4015|BREAST ENGORGEMENT RELIEF
4016|RELIEVE/STOP FLUSH
4017|ENDOMETRIOSIS REGULTN
4019|PSEUDOPREGNANCY THERAPY
4020|ABORTIFACIENT
4021|ΩΟΡΡΗΞΊΑ
4026|MENSTRUATION INDUCTION
4032|UTEROTONIC
4033|INCREASE UTERUS CONTRACTIONS
4042|SWEATING REDUCTION
4043|LACTATION CONTROL
4046|NORMALIZE ENDOMETRIUMN
4049|OVARY FUNCTION REGULTN
4064|ANTI STRIAE
4065|MISCARRIAGE PREVENTION
4067|CERVIX INFLMTN SUPPRESSION
4068|ABLACTATION
4069|VAGINAL EPITHEL.RESTORATION
4070|ΔΙΈΓΕΡΣΗ ΤΩΝ ΩΟΘΗΚΏΝ
4071|PREVENT RHESUS SENSITISATION
4072|REDUCTION IN BREAST PAIN
4073|ENHANCE VAGINAL FLORA
4074|CYST ABSORPTION
4075|PREVENTION OF NEW GROWTH
4076|PLACENTA EUTROPHIC
4077|ANTI HAEMOPH BACT IN VAGINA
4078|INCRES UTER CONTRAC/ ABORTIF
4079|INDUCE AMENORRHEA
4080|PSEUDOMENOPAUSE THERAPY
4099|GYNAECOLOGICAL ACTION OTHER
4101|ΟΞΥΤΟΚΙΚΌ
4102|LABOUR INDUCTION
4104|PROMOTE UTERINE CONTRACTIONS
4105|CERVICAL CANAL DILATOR
4199|ΟΞΥΤΟΚΙΚΌ ΆΛΛΟ
4201|ΑΝΤΙΣΥΛΛΗΠΤΙΚΌ
4202|ΚΑΤΑΣΤΟΛΉ ΩΟΡΡΗΞΊΑς
4204|ΑΝΤΙΣΎΛΛΗΨΗ
4205|ORAL CONTRACEPTIVE
4207|BIRTH CONTROL
4208|FAMILY PLANNING
4213|PREVENT TREAT AMENORRHEA
4299|ΑΝΤΙΣΥΛΛΗΠΤΙΚΉ ΔΡΆΣΗ ΆΛΛΗ
4301|URINARY ANTISEPTIC
4302|BLADDER SEDATIVE
4303|URICOLYTIC
4304|ANTI ENEURETIC
4305|ANTI DIURETIC
4306|URINARY PAIN RELIEF
4307|URINARY ALKALIZATION
4309|ΚΑΤΆ ΤΟΥ ΠΡΟΣΤΆΤΗ
4311|ENURESIS FREQ.REDUCTION
4314|ENEURESIS CONTROL
4316|URINE BLADDER CONTROL
4317|RESTORE BLADDER TONE
4322|URINARY ANTI-SPASMODIC
4325|PROSTATIC DESCONGESTANT
4328|A-BLOCKER FOR PROST.HYPERTR.
4329|DYSURIA IMPROVEMENT
4334|PROSTATE HYPERTR. TREATMENT
4335|PROSTATE GLAND INHIBITOR
4336|5 ALPHA REDUCTASE INHIBITOR
4337|LUBRICATION
4338|RELAX BLADDER NECK
4339|RED PROSTATIC HYPERPLASIA
4340|ELIMINAT PROSTAT ANNOYANCE
4341|ELIMINAT BLADDER ANNOYANCE
4342|PREVENT BLADDER NEOP RECURR
4343|REDUCT BLADDER HYPERT& CONSTRICT
4344|ADENOMA SHRINKAGE
4345|IMPROVE NOCTURIA
4346|CONTROL BLADDER SPHINCTER
4399|URINARY ANTISEPT.-ANTIIFLAM.OTHER
4401|ΚΑΤΆ ΤΟΥ ΘΥΡΕΟΕΙΔΉ
4404|THYROID SUBSTITUTION
4405|THYREOSTATIC
4407|THYROID SUPPLEMENT
4410|IODOTHERAPY
4411|THYROID HORMONE
4412|THYROID FUNCTION PROMOTION
4413|ANTI HYPERTHYROIDISM
4414|ANTI-ADRENERGIC
4415|THYROXIN
4416|THYROID AXIS INHIBITION
4417|REMISSION THYROIDS NODULES
4418|ANTI GOITER
4499|THYROID THERAPY OTHER
4501|STEROID THERAPY
4502|HORMONAL SUPPLEMENT
4503|HORMONE IMBALANCE CORRECTION
4504|CORTICOTHERAPY
4506|ΘΕΡΑΠΕΊΑ ΑΝΔΡΟΓΌΝΩΝ
4507|OESTROGEN
4508|GONADOMIMETIC ACTION
4511|PROGESTERONE THERAPY
4514|FERTILITY INCREASE
4515|LIBIDO INCREASE
4517|HORMONAL
4518|HORMONOTHERAPY
4519|HORMONE SUBSTITUTION THERAPY
4520|LUTEINIZING ACTION
4522|PROLACTIN LEVEL REDUCTION
4523|DEFLORESCENCE
4524|OESTROG+PROGEST THERAPY
4525|ΠΡΌΚΛΗΣΗ ΩΟΡΡΗΞΊΑς
4526|ANTI HORMONAL
4527|ANTIGONADOTROPHIC
4530|SEXUAL GLAND FUNCTIONS STIMULANT
4531|SHOCK PREVENTION
4532|GROWTH PROMOTION
4534|ANTI OESTROGENS
4537|GONADOTROPHIC
4539|PROLACTINE INHIBITOR
4542|SEXUAL TONIC
4543|OSTEOGENIC
4544|DESCENT TESTICLES
4545|ΘΕΡΑΠΕΊΑ ΚΑΤΆ ΤΩΝ ΑΝΔΡΟΓΌΝΩΝ
4552|ANTI HIRSUTISM
4553|GONADTRN-RELEAS.HORM.EFFCT
4554|ANTI-HORMONAL
4555|OESTROGEN-MIMETIC
4556|INHIBIT OESTROGEN PRODUCTION
4557|HYPOPHYSIS INHIBITION
4559|ANTI MASCULANIZATION
4560|FSH/LH SECRETION INHIBITOR
4561|IN VITRO FERTILIZATION
4562|TOPICAL HORMONES
4563|ANALOGUE OCTREOTIDE
4564|INCREASE TESTOSTERONE
4565|BLOCKAGE OESTROGEN RECEPTORS
4566|INHIBIT PUBERTY
4567|STEROID - ANTIALLERGY
4599|OTHER STEROID & HORM.THERA
4904|IMPROVE MICTURITION
4905|NEPHROLITH DISSOLUTION
4907|PROSTATAUXE RELIEF
4909|KIDNEY FUNCTION STIMULANT
4910|URINATION IMPROVEMENT
4911|ERECTILE ACTION
4912|SPERMATOGENESIS STIMULANT
4913|IMPROVE SPERM. MOBILITY
4914|IMPROVE URINE OUTFLOW
4915|PREVENT PREMATURE EJACULATION
4916|INH PENIS HARD PLAQ- PEYRONIE
4917|REMISSION OF BALANITIS
4918|VASODILAT CORPORA CAVERNOSA
4999|G.U. ACTIONS OTHER
5001|ANTI INFECTIVE
5002|ΑΝΤΙΒΙΟΤΙΚΌ
5005|COMBAT INFECTION
5006|ΧΗΜΕΙΟΘΕΡΑΠΕΊΑ
5009|INFECTION RELAPSE PREVENTION
5012|INFECTION PREVENTION
5016|ANTI INFLAM-ANTIBIOTIC
5024|ANTIBIOTIC+EXPECTORANT
5025|ΑΝΤΙΒΙΟΤΙΚΌ ΑΝΑΛΓΗΤΙΚΌ
5026|ΑΝΤΙΒΙΟΤΙΚΌ ΑΝΤΙΒΗΧΙΚΌ
5027|ΑΝΤΙΒΙΟΤΙΚΌ ΑΝΤΙΣΠΑΣΜΩΔΙΚΌ
5028|ANTIBIOTIC & DESCONGEST
5029|ΑΝΤΙΒΙΟΤΙΚΌ + ΜΥΚΗΤΟΚΤΌΝΟ
5033|ANTIBIOTIC+ENZYMATIC
5034|ΑΝΤΙΒΙΟΤΙΚΌ ΑΝΤΙΔΙΑΡΡΟΪΚΌ
5037|ANTIB/ ANTIPRUR/ ANTIERYTHEM
5099|ANTIBIOTIC ACTION OTHER
5102|BACTERICIDAL
5103|BACTERIOSTATIC
5104|ANTIMICROBIAL
9830|DETOXIFICATION
4512|HORMONAL REGULATION
5132|ΕΝΆΝΤΙΑ ΣΤΑ ΧΛΑΜΎΔΙΑ
5133|ANTIMICROB/ SEBORRHEA CONTR
5134|ANTIMICROBIAL HEALING
5135|ANTI- UREAPLASMA
5199|ΑΝΤΙΒΑΚΤΗΡΙΑΚΌ
5201|TUBERCULOSTATIC
5202|ANTITUBERCULOSIS
5203|ANTI -PHYMA
5299|TUBERCULOSTATIC ACTION OTHER
5301|ANTI-VIRAL
5304|ΤΟΠΙΚΌ ΕΝΆΝΤΙΑ ΣΤΟΝ ΙΟ
5305|ANTI-RETROVIRUS
5399|ANTI-VIRAL OTHER
5401|IMMUNIZATION
5402|PROPHYLAXIS
5403|ΕΜΒΟΛΙΑΣΜΌς
5404|TETANUS PREVENTION
5408|MODIFY DISEASE
5412|BUILD IMMUNE RESISTANCE
5420|IMMUNOTHERAPY
5422|PREVENT OSTEOPOROSIS& CVS DIS
5423|PREVENT CONGENIT. DEFORMITIES
5499|VACCINATION OTHER
5501|ΑΝΤΙΣΗΠΤΙΚΌ
5502|DISINFECTANT
5503|LOCAL ANTISEPTIC
5506|ANTISEPTIC ORAL
5511|ANTISEPTIC + DESCONGEST
5512|ANTISEPTIC + ASTRINGENT
5513|ANTISEPTIC+ANTIFECTIV.
5516|ΑΝΤΙΣΗΠΤΙΚΌ & ΑΝΑΛΓΗΤΙΚΌ
5518|ANTISEPTIC+ANTIINFLAMMATORY
5519|ANTISEPTIC/ GERMICIDAL
5521|NASOPHARYNGEAL ANTISEPTIC
5522|ANTISEPTIC AND DESICCANT
5523|ANTISEPTIC/ ANTIBIOTIC
5599|ANTISEPTIC ACTION OTHER
5601|ANTIPARASITIC
5602|PARASITICIDE
5603|AMOEBACIDE
5604|ANTHELMINTIC
5605|ANTI SCABIES
5606|TRICOMONACIDE
5609|OXYURICIDE
5610|ANTI-TRICHOMONAL
5614|ANTI PEDICULOSIS
5617|ACARICIDE
5623|ANTI-MALARIA
5626|ANTI PROTOZOAL
5630|ANTI-TOXOPLASMOSIS
5631|TOPICAL ACARICIDE
5632|ANTI-ENTAMOEBA HISTOLYTICA
5633|ANTI-ECHINOCOCCUS
5699|PARASITOLOGY OTHER
5901|SULFONAMIDES
5903|MALARIA PROPHYLAXIS
5906|ANTI-STREPTOCOCCAL
5910|PUS REMOVAL
5911|PREVENT SUPPURATION
5999|ANTI-INFECTIVE OTHER
6002|ANTI PHLOGISTIC
6004|ΑΝΑΛΓΗΤΙΚΌ ΑΝΤΙΦΛΕΓΜΟΝΏΔΕς
6005|INFLAMMATION REDUCTION
6006|ANTIINFLAM/ANTI ARTHRT.
6012|ANTIINFLAMM + DESCONGEST
6013|ANTIINFLAMM/ ANTIPRURITIC
6014|ANTIINFLAM+ANTINFECT
6015|ANTIINFLAM+KERATOLYTIC.
6017|ANTIPROSTAGLANDIN
6018|ENZYME ANTI INFLAMMATORY
5108|MICROBES REPROD.INHIBITOR
5109|ΑΝΑΕΡΌΒΙΑ ΕΝΈΡΓΕΙΑ
5112|GERMICIDE
5115|HEALING & EMOLLIENT
5118|ANTISTAPHYLOCOCCAL
5130|ANTIMICROBIAL & ANTIINFLAM.
5131|BEFORE ANTIBIOTICS
6120|ΑΝΤΙΡΕΥΜΑΤΙΚΌ / ΑΝΤΙΦΛΕΓΜΟΝΏΔΗ
6199|ΑΝΤΙΡΕΥΜΑΤΙΚΌ ΆΛΛΟ
6201|RUBEFACIENT
6202|COUNTER IRRITANT
6204|ΤΟΠΙΚΌ ΑΝΤΙΡΕΥΜΑΤΙΚΌ
6205|STUPE
6206|TOPICAL SKIN CONGESTION
6207|ΤΟΠΙΚΌ ΑΝΑΛΓΗΤΙΚΌ
6209|HEATING ACTION
6299|RUBEFACIENT OTHER
6301|SKELETAL MUSCLES RELXNT
6302|MUSCULAR TONE INCREASE
6303|STIFFNESS RELIEF
6304|MUSCULAR ANTISPASMODIC
6307|MUSCULAR RELAXANT
6309|CRAMP RELIEF
6310|MUSCULAR RELXNT/ANALGESIC
6311|MUSCLE SPASM RELIEF
6312|MUSCULAR TONIC
6313|MYALGIA RELIEF
6315|ΕΝΆΝΤΙΑ ΣΤΗ ΜΥΑΛΓΙΑ
6316|MUSCULAR RELAXNT/ANTIINFLAMM.
6321|STIFF SHOULDER RELIEF
6323|MUSCULAR RELAXANT/SPASMOLYTIC
6324|MUSCULAR RELAXANT/ANXIOLYTIC
6325|ΜΥΪΚΌ ΑΝΑΛΓΗΤΙΚΌ
6326|MUSC RELAX/ANALGES/ANTIINFLAM
6399|MUSCULAR RELAXANT OTHER
6403|HYPOURICEMIA
6406|URICOSURIC
6408|URIC ACID REGULATION
6409|INHIBIT URICOPOIESIS
6413|XANTHINE OXIDASE INHIBITOR
6499|ΑΝΤΊ ΟΥΡΙΚΉ ΑΡΘΡΊΤΙΔΑ
6501|ΚΑΤΆ ΤΗς ΑΡΘΡΊΤΙΔΑς
6503|ΚΑΤΆ ΤΗς ΑΡΘΡΊΤΙΔΑς + ΑΝΑΛΓΗΤΙΚΌ
6504|CHONDROTROPHIC
6507|INTRA-ARTICULAR INFUSION
6508|ANTIARTHRITIC/ ANTIINFLAMM
6509|TOPICAL ANTIARTHRITIC
6510|IMPROVE JOINT CARTILAGE
6599|ANTIARTHRITIC OTHER
6902|CARTILAGE REGENERATION
6903|MUSCULAR CONTRACTION
6904|OSSIFICATION STIMULANT
6905|MUSCULAR STIMULANT
6906|BONE TONIC
6908|MOTILITY INCREASE
6909|ANTI-OSTEOCLASTIC
6915|ANTI-OSTEOPOROSIS
6916|PROTECT CARTILAGE
6919|OSTEOBLASTIC
6921|OSTEOSYNTHETIC
6922|COMPLIMENT OSTEOGENESIS
6933|STRENGTHEN SPINAL COLUMN
6934|STOP CALCIFICATION
6936|PREVENT OSTEOPOROSIS
6939|PREVENT BONES FRACTURES
6940|BONE MASS REGULATOR
6941|RECOVER MUSCULOSKEL LESI
6942|INCREASE BONE MASS
6943|ANTIOSTEOPOROSIS/ANALGES
6999|MUSCULOSCELET ACTION OTHER
7001|ΑΝΑΙΣΘΗΤΙΚΌ
6019|ANTIPROSTAGLANDIN/ANALGESIC
6020|LEUKOTRIENE ANTAGONIST
6021|COX-2 INHIBITION
6099|ΑΝΤΙΦΛΕΓΜΟΝΏΔΗ
6101|ΑΝΤΙΡΕΥΜΑΤΙΚΌ
6102|ΑΝΤΙΡΕΥΜΑΤΙΚΌ / ΑΝΑΛΓΗΤΙΚΌ
6103|ANTIRHEUM+ANTIARTHRITIC
6105|ΑΝΤΙΡΕΥΜΑΤΙΚΌ / ΑΝΤΙΦΛΕΓΜΟΝΏΔΗ / ΑΝΑΛΓΗΤΙΚΌ
7118|TEMPERATURE REDUCTION
7120|MIGRAINE RELIEF
7128|PROPHYLAX MIGRAINE
7130|ΑΝΑΛΓΗΤΙΚΌ ΑΝΤΙΣΠΑΣΜΟΛΥΤΙΚΌ ΓΑΣΤΡΟΠΡΟΣΤΑΣΊΑ
7132|ANTIPYRETIC+ANTIINFLAM
7134|CEPHALALGIA RELIEF
7135|JOINT PAIN RELIEF
7136|ΑΝΑΛΓΗΤΙΚΌ ΓΙΑ ΚΕΦΑΛΑΛΓΊΑ
7137|STOP PAIN
7139|ΑΝΑΛΓΗΤΙΚΟ ΑΝΤΙΦΛΕΓΜΟΝΏΔΕς
7144|HEADACHE RELIEF
7145|ΑΝΑΛΓΗΤΙΚΌ ΑΝΤΙΠΥΡΕΤΙΚΌ ΑΝΤΙΦΛΕΓΜΟΝΏΔΕς
7148|ΑΝΑΛΓΗΤΙΚΌ ΗΡΕΜΙΣΤΙΚΌ
7150|ΑΝΑΛΓΗΤΙΚΌ + ΒΙΤΑΜΊΝΗ
7152|RAISE PAIN THRESHOLD
7153|CELL MEMBRN.STABLZN.FOR PAIN
7199|ΑΝΑΛΓΗΤΙΚΌ ΑΝΤΙΠΥΡΕΤΙΚΌ
7202|TREMOR CONTROL
7204|ANTI TREMOR
7205|ΚΑΤΆ ΤΟΥ ΠΆΡΚΙΝΣΟΝ
7206|RIGIDITY CONTROL
7207|CONTROL SPASTICITY
7208|ΑΝΤΙΣΠΑΣΜΩΔΙΚΌ
7211|ANTI-TREMOR/SHAKE
7215|EPILEPSY CRISES REDUCTION
7217|ANTIDOPAMINERGIC
7218|COMT INHIBITION
7219|PROLONG L-DOPA EFFECT
7220|ANTI EPILECTIC/ ANXIOLYT
7299|ΑΝΤΙΕΠΙΛΗΠΤΙΚΌ
7301|TRANQUILIZER
7302|ΚΑΤΑΠΡΑΫΝΤΙΚΌ
7303|RELAXANT
7304|HYPNOTIC
7305|ANXIETY RELIEF
7308|ΑΓΧΟΛΥΤΙΚΌ
7310|NEUROLEPTIC
7311|THYMOLEPTIC
7313|ANTI-PSYCHOTIC
7316|ΚΑΤΑΠΡΑΫΝΤΙΚΉ ΔΡΆΣΗ
7319|PROMOTE SLEEP
7325|SCHIZOPHRENIA IMPROVEMENT
7328|ANXIETY+DEPRESSION RELIEF
7329|ΚΑΤΑΠΡΑΫΝΤΙΚΌ - ΑΝΑΛΓΗΤΙΚΌ
7330|TRANQUIL/MOOD STAB
7332|ANTI-DELIRIUM
7339|NERVOUSNESS IMPROVEMENT
7340|STABILISE NEUROVEGET DISORDER
7341|NEUROSIS IMPROVEMENT
7342|AGAINST HYPERPHRENIA
7343|ANTI-PSYCHOSOMATIC
7344|STRESS RELIEF
7345|ANTI-OBSESSIVE COMPULSIVE
7348|INSOMNIA IMPROVEMENT
7349|ANTI PANIC
7350|CONTROL NEGATIVISM
7351|NORADREN.& SPECIFIC SEROTON.
7352|SEROTONIN LEVEL CONTROL
7353|ANTI HYPERACTIVITY
7354|CONTROL AGRESSI & PARANOIA
7355|ANTI DYSKINESIA
7356|ANXIOLYTIC / TRANQUILLISER
7357|ANXIOL/TRANQUILLISER/ANALG
7003|LOCAL ANAESTHETIC
7004|ΑΝΑΙΣΘΗΤΙΚΌ + ΑΝΑΛΓΗΤΙΚΌ
7007|ΑΝΑΙΣΘΗΤΙΚΌ + ΑΝΤΙΦΛΕΓΜΟΝΏΔΕς
7099|ΑΝΑΙΣΘΗΤΙΚΌ ΆΛΛΟ
7103|ANTIMIGRAINE
7104|ANTIPYRETIC
7105|ANTI-NEURALGIA
7114|PREVENT MIGRAINE
7116|ΑΝΑΛΓΗΤΙΚΌ
7358|ANTIPSYCHOT /ANTIDEPRESS
7359|ANTIPSYCHOT /HYPNOTIC
7360|ANTIPSYCHOT/ TRANQUILLIS
7361|ΑΝΤΙΚΑΤΑΘΛΙΠΤΙΚΌ / ΚΑΤΆ ΤΟΥ ΠΑΝΙΚΟΎ
7399|PSYCHOLEPTIC OTHER
7401|ANTIDEPRESSANT
7402|CNS STIMULANT
7403|EMOTIONAL STABILISATION
7404|PSYCHOSTIMULANT
7405|PSYCHOTHERAPY
7406|ANTI NEUROTIC
7407|PSYCHOTROPIC
7408|AWAKEN/STIMULATION
7409|MEMORY TONIC
7413|ELEVATE MOOD
7415|ΕΝΆΝΤΙΑ ΣΤΗΝ ΥΠΝΗΛΊΑ
7417|BEHAVIOR CONTROL
7418|FATIGUE LESSENING
7425|ΕΝΆΝΤΙΑ ΣΤΗ ΦΟΒΊΑ
7426|ANTI-HALLUCINOGENIC
7429|PSYCHOANALEPTIC
7432|CEREBRAL TONIC
7433|CONSCIOUSNESS RECOVERY
7436|MANIA SYMPTOMS REDUCTION
7437|RELIEVE DELUSION
7444|LITHIUM LEVEL BLOOD INCREASE
7445|MEMORY RETENTION/PRESERVE.
7446|DEMENTIA IMPROVEMENT
7447|AFFECTION IMPROVEMENT
7448|REGULATE MOOD
7449|MONOAMINE OXIDASE B INHIB.
7450|AMPA RECEPTOR STIMULATION
7452|ΒΕΛΤΊΩΣΗ ΜΝΉΜΗς
7454|ANTI - ALZHEIMER DISEASE
7455|IMPROVE BRAIN ATROPHY
7456|IMPROVE COMMUNICATION
7457|ΑΝΤΙΚΑΤΑΘΛΙΠΤΙΚΌ / ΗΡΕΜΙΣΤΙΚΌ
7458|ΚΑΤΆ ΤΗς ΔΥΣΘΥΜΊΑς
7459|PREVENT MANIC-DEPRESS EPIS
7460|ANTIBULEMIC
7461|ΑΝΤΙΚΑΤΑΘΛΙΠΤΙΚΌ - ΚΑΤΆ ΤΗς ΕΜΜΟΝΉς
7462|ΑΝΤΙΚΑΤΑΘΛΙΠΤΙΚΌ / ΥΠΝΩΤΙΚΌ
7463|ANTIDEPRESS/ ANTI PHOBIC
7499|PSYCHOANALEPTIC OTHER
7902|SYMPATHOMIMETIC
7903|SYMPATHITICOLYTIC
7906|ANTIDYSTONIA
7907|CEREBROTROPHIC
7911|ΝΟΟΤΡΌΠΟ
7914|PARASYMPATHOLYTIC
7915|PARASYMPATHICOMIMETIC
7919|NEUROPROTECTIVE
7920|REGULATE NERVOUS SYSTEM
7921|EXTRAPYRAMIDAL SYND IMPROV.
7923|CHOLINERGIC
7926|MODIFY CEREBRAL METABOLISM
7927|DOPAMINERGIC
9832|CYTOTOXIC
9834|ANTIDOTE
7928|NEUROCONDUCTIVE
7931|NEUROACTIVE
7933|DYSESTHESIA IMPROVEMENT
7934|STIMULAT. OF GABA SYNAPSES
7935|C.N.S. SUPPRESSION
7936|ANTI-DEMYELINATION
7938|ACETYCHOLINESTERASE INHIB.
7939|PREVENT INVOLUNTARY MOVEMENT
7940|ENHANCE NEUROMUSC.TRANSMISN
7941|PREVENT NEURAL TUBE DEFECT
7942|IMPROVE NEUROPATHY SYMPTOMS
7943|IMPROVE NEUROTRANSMISSION
7944|CONTROL NEURONIC ACTION
7945|CELL MEMBRANE PROTECTION
7946|PERIPH. ANTICHOLINESTERASE
7948|CHOLINE-MIMETIC
7949|RETARD DISEAS DEVELOPMENT
7950|ΕΝΆΝΤΙΑ ΣΤΗΝ ΚΑΟΎΡΑ
7999|C.N.S. ACTIONS OTHER
8001|NASAL DECONGESTANT
8002|ANTI CATARRH
8003|O.R.L. DECONGESTANT
8004|MUCOUS MEMBRANE DECONGESTANT
8005|NASAL CATARRHAL RELIEF
8007|ΡΙΝΙΚΌ ΑΝΤΙΣΗΠΤΙΚΌ
8008|ΡΙΝΙΚΌ ΑΝΤΙΑΛΛΕΡΓΙΚΌ
8009|ΡΙΝΙΚΌ ΑΝΤΙΦΛΕΓΜΟΝΏΔΗ
8015|ΑΝΑΚΟΎΦΙΣΗ ΔΈΡΜΑΤΟς
8016|NASAL EXCRETION DECONGESTION
8017|NASAL BLEEDING RELIEF
8018|NASAL SALINE
8019|NASAL CLEANING
8020|ΑΝΤΙΑΛΛΕΡΓΙΚΌ ΑΝΤΙΟΙΔΗΜΑΤΙΚΌ
8021|ANTIEDEMA/ MUCOLYTIC
8022|NASAL DESCONGEST/ VASOCONSTR
8099|NASAL DECONGESTANT OTHER
8102|BRONCHODILATOR
8103|DYSPNOEA RELIEF
8104|RESPIRATORY STIMULANT
8105|BRONCH ANTISPASMODIC
8106|WHEEZING RELIEF
8108|BRONCHOLYTIC
8109|BRONCHIOSPASM RELIEF
8111|BRONCHIOSPASM REDUCTION
8113|BREATHING IMPROVEMENT
8115|OXYGEN THERAPY
8117|BRONCHOUS DECONGESTION
8119|DYSPNOEA ALLEVIATION
8120|ANTIASTHMATIC/BRONCHODILATOR
8123|BETA 2 STIMULANT
8124|ASTHMA CRISIS PROPHYLAXIS
8131|ASTHMA PREVENTION
8132|TOPICAL BRONCH.ANTIINFLAMM.
8133|PREVENT BRONCHOSPASM
8134|BRONCHODILATOR/CORTICOSTEROID
8135|BRONCHODILATOR/ ANTIINFLAM
8136|ANTIINFLAMM / ANTIEDEMA
8137|ASTHMATICS / ANTINFLAMM
8138|ANTIHISTAM / BRONCHODILAT
8139|ANTIEDEMA BRONCHIAL
8140|ANTIEDEMA / BRONCHODILAT
8199|ΑΝΤΙΑΣΘΜΑΤΙΚΌ
8201|ΕΙΣΠΝΕΥΣΤΙΚΌ
8205|ΕΙΣΠΝΕΥΣΤΙΚΌ (ΑΝΤΙΒΊΩΣΗ)
8206|ΕΙΣΠΝΕΥΣΤΙΚΌ ΚΟΡΤΙΚΟΣΤΕΡΟΕΙΔΉ
8207|INHALANT NSAID
8299|ΕΙΣΠΝΕΥΣΤΙΚΌ ΆΛΛΟ
9842|HAIR GENERATION
9845|ELECTROLYTE IMBAL.CORRECTION
9846|ΑΝΑΦΥΛΑΚΤΙΚΌ
9848|ΝΑΡΚΩΤΙΚΌ
9849|CYTOSTATIC
9850|ADDICTION SUPPRESSION
9855|PREVENTATIVE
9856|BRUISING DISPERSION
9857|BRUISING REDUCTION
9858|MOUTH WASH
9859|ANTI TUMOR
9860|ANTI NEOPLASTIC
9866|METASTASES REDUCTION
9867|INHIBIT SEROTONIN REUPTAKE
9870|LITHOLYSIS
9873|ANTIOXIDANT
9875|ΚΑΤΆ ΤΟΥ ΚΑΡΚΊΝΟΥ
9880|ANTI PROTEOLYSIS
9881|METASTASIS PREVENTION
9882|FIBROSIS PREVENTION
9895|ΘΕΡΑΠΕΊΑ ΑΛΚΟΟΛΙΣΜΟΎ
9896|ΑΝΑΠΛΑΣΤΙΚΉ
9897|CARNITINE
9898|LYMPHAT.CIRCULATION IMPROVE.
9899|OTHERS
9901|UNSP DESIRED EFFECT
9999|NO DESIRED EFFECT